<?xml version="1.0"?>
<VTKFile type="Collection"
         version="0.1"
         byte_order="LittleEndian"
         compressor="vtkZLibDataCompressor">
 <Collection>
   <DataSet timestep="0" file="windtunnel3d-pm-00001.vtu"/>
 </Collection>
</VTKFile>
