<?xml version="1.0"?>
<VTKFile type="Collection"
         version="0.1"
         byte_order="LittleEndian"
         compressor="vtkZLibDataCompressor">
 <Collection>
   <DataSet timestep="85666.2062170389" file="windtunnel-pm-00162.vtu"/>
   <DataSet timestep="258492.2934019463" file="windtunnel-pm-00237.vtu"/>
 </Collection>
</VTKFile>
