<?xml version="1.0"?>
<VTKFile type="Collection"
         version="0.1"
         byte_order="LittleEndian"
         compressor="vtkZLibDataCompressor">
 <Collection>
   <DataSet timestep="25" file="conservation-pm-00007.vtu"/>
 </Collection>
</VTKFile>
