<?xml version="1.0"?>
<VTKFile type="UnstructuredGrid" version="0.1" byte_order="LittleEndian">
  <UnstructuredGrid>
    <Piece NumberOfCells="256" NumberOfPoints="576">
      <CellData Scalars="pn" Vectors="velocityN">
        <DataArray type="Float32" Name="velocityN" NumberOfComponents="3" format="ascii">
          0 -6.71856e-05 0 -1.83144e-05 -6.71856e-05 0 0 -4.88712e-05 0 -1.83144e-05 -4.88712e-05 0
          -1.83144e-05 -6.71862e-05 0 -1.53155e-05 -6.71862e-05 0 -1.83144e-05 -7.01852e-05 0 -1.53155e-05 -7.01852e-05 0
          -1.53155e-05 -6.7186e-05 0 -8.03915e-06 -6.7186e-05 0 -1.53155e-05 -7.44626e-05 0 -8.03915e-06 -7.44626e-05 0
          -8.03915e-06 -6.7186e-05 0 -1.40331e-09 -6.7186e-05 0 -8.03915e-06 -7.5224e-05 0 -1.40331e-09 -7.5224e-05 0
          -1.40331e-09 -6.7186e-05 0 8.0384e-06 -6.7186e-05 0 -1.40331e-09 -7.5226e-05 0 8.0384e-06 -7.5226e-05 0
          8.0384e-06 -6.7186e-05 0 1.53127e-05 -6.7186e-05 0 8.0384e-06 -7.44606e-05 0 1.53127e-05 -7.44606e-05 0
          1.53127e-05 -6.71862e-05 0 1.83081e-05 -6.71862e-05 0 1.53127e-05 -7.01817e-05 0 1.83081e-05 -7.01817e-05 0
          1.83081e-05 -6.71856e-05 0 0 -6.71856e-05 0 1.83081e-05 -4.88775e-05 0 0 -4.88775e-05 0
          0 -4.88712e-05 0 -1.33059e-05 -4.88712e-05 0 0 -3.55654e-05 0 -1.33059e-05 -3.55654e-05 0
          -1.33059e-05 -7.01852e-05 0 -1.56648e-05 -7.01852e-05 0 -1.33059e-05 -6.78266e-05 0 -1.56648e-05 -6.78266e-05 0
          -1.56648e-05 -7.44626e-05 0 -9.6281e-06 -7.44626e-05 0 -1.56648e-05 -8.04996e-05 0 -9.6281e-06 -8.04996e-05 0
          -9.6281e-06 -7.5224e-05 0 2.19909e-09 -7.5224e-05 0 -9.6281e-06 -8.48546e-05 0 2.19909e-09 -8.48546e-05 0
          2.19909e-09 -7.5226e-05 0 9.62837e-06 -7.5226e-05 0 2.19909e-09 -8.48525e-05 0 9.62837e-06 -8.48525e-05 0
          9.62837e-06 -7.44606e-05 0 1.56621e-05 -7.44606e-05 0 9.62837e-06 -8.04946e-05 0 1.56621e-05 -8.04946e-05 0
          1.56621e-05 -7.01817e-05 0 1.33039e-05 -7.01817e-05 0 1.56621e-05 -6.78237e-05 0 1.33039e-05 -6.78237e-05 0
          1.33039e-05 -4.88775e-05 0 0 -4.88775e-05 0 1.33039e-05 -3.55737e-05 0 0 -3.55737e-05 0
          0 -3.55654e-05 0 -6.65462e-06 -3.55654e-05 0 0 -2.89109e-05 0 -6.65462e-06 -2.89109e-05 0
          -6.65462e-06 -6.78266e-05 0 -9.68368e-06 -6.78266e-05 0 -6.65462e-06 -6.47977e-05 0 -9.68368e-06 -6.47977e-05 0
          -9.68368e-06 -8.04996e-05 0 -6.60029e-06 -8.04996e-05 0 -9.68368e-06 -8.35832e-05 0 -6.60029e-06 -8.35832e-05 0
          -6.60029e-06 -8.48546e-05 0 8.43572e-10 -8.48546e-05 0 -6.60029e-06 -9.1456e-05 0 8.43572e-10 -9.1456e-05 0
          8.43572e-10 -8.48525e-05 0 6.60171e-06 -8.48525e-05 0 8.43572e-10 -9.14537e-05 0 6.60171e-06 -9.14537e-05 0
          6.60171e-06 -8.04946e-05 0 9.68287e-06 -8.04946e-05 0 6.60171e-06 -8.3576e-05 0 9.68287e-06 -8.3576e-05 0
          9.68287e-06 -6.78237e-05 0 6.65185e-06 -6.78237e-05 0 9.68287e-06 -6.47929e-05 0 6.65185e-06 -6.47929e-05 0
          6.65185e-06 -3.55737e-05 0 0 -3.55737e-05 0 6.65185e-06 -2.89219e-05 0 0 -2.89219e-05 0
          0 -2.89109e-05 0 -2.88249e-06 -2.89109e-05 0 0 -2.60285e-05 0 -2.88249e-06 -2.60285e-05 0
          -2.88249e-06 -6.47977e-05 0 -4.90719e-06 -6.47977e-05 0 -2.88249e-06 -6.27733e-05 0 -4.90719e-06 -6.27733e-05 0
          -4.90719e-06 -8.35832e-05 0 -3.61076e-06 -8.35832e-05 0 -4.90719e-06 -8.488e-05 0 -3.61076e-06 -8.488e-05 0
          -3.61076e-06 -9.1456e-05 0 -2.49694e-10 -9.1456e-05 0 -3.61076e-06 -9.50668e-05 0 -2.49694e-10 -9.50668e-05 0
          -2.49694e-10 -9.14537e-05 0 3.615e-06 -9.14537e-05 0 -2.49694e-10 -9.50692e-05 0 3.615e-06 -9.50692e-05 0
          3.615e-06 -8.3576e-05 0 4.91286e-06 -8.3576e-05 0 3.615e-06 -8.48742e-05 0 4.91286e-06 -8.48742e-05 0
          4.91286e-06 -6.47929e-05 0 2.89043e-06 -6.47929e-05 0 4.91286e-06 -6.27707e-05 0 2.89043e-06 -6.27707e-05 0
          2.89043e-06 -2.89219e-05 0 0 -2.89219e-05 0 2.89043e-06 -2.60316e-05 0 0 -2.60316e-05 0
          0 -2.60285e-05 0 -1.18145e-06 -2.60285e-05 0 0 -2.48471e-05 0 -1.18145e-06 -2.48471e-05 0
          -1.18145e-06 -6.27733e-05 0 -2.26167e-06 -6.27733e-05 0 -1.18145e-06 -6.16933e-05 0 -2.26167e-06 -6.16933e-05 0
          -2.26167e-06 -8.488e-05 0 -1.76392e-06 -8.488e-05 0 -2.26167e-06 -8.5378e-05 0 -1.76392e-06 -8.5378e-05 0
          -1.76392e-06 -9.50668e-05 0 1.76357e-09 -9.50668e-05 0 -1.76392e-06 -9.68328e-05 0 1.76357e-09 -9.68328e-05 0
          1.76357e-09 -9.50692e-05 0 1.76356e-06 -9.50692e-05 0 1.76357e-09 -9.68313e-05 0 1.76356e-06 -9.68313e-05 0
          1.76356e-06 -8.48742e-05 0 2.26512e-06 -8.48742e-05 0 1.76356e-06 -8.53761e-05 0 2.26512e-06 -8.53761e-05 0
          2.26512e-06 -6.27707e-05 0 1.18588e-06 -6.27707e-05 0 2.26512e-06 -6.16918e-05 0 1.18588e-06 -6.16918e-05 0
          1.18588e-06 -2.60316e-05 0 0 -2.60316e-05 0 1.18588e-06 -2.48458e-05 0 0 -2.48458e-05 0
          0 -2.48471e-05 0 -5.4975e-07 -2.48471e-05 0 0 -2.42975e-05 0 -5.4975e-07 -2.42975e-05 0
          -5.4975e-07 -6.16933e-05 0 -1.08324e-06 -6.16933e-05 0 -5.4975e-07 -6.11601e-05 0 -1.08324e-06 -6.11601e-05 0
          -1.08324e-06 -8.5378e-05 0 -8.64471e-07 -8.5378e-05 0 -1.08324e-06 -8.55971e-05 0 -8.64471e-07 -8.55971e-05 0
          -8.64471e-07 -9.68328e-05 0 -4.6042e-09 -9.68328e-05 0 -8.64471e-07 -9.76929e-05 0 -4.6042e-09 -9.76929e-05 0
          -4.6042e-09 -9.68313e-05 0 8.59308e-07 -9.68313e-05 0 -4.6042e-09 -9.76955e-05 0 8.59308e-07 -9.76955e-05 0
          8.59308e-07 -8.53761e-05 0 1.08397e-06 -8.53761e-05 0 8.59308e-07 -8.5601e-05 0 1.08397e-06 -8.5601e-05 0
          1.08397e-06 -6.16918e-05 0 5.5005e-07 -6.16918e-05 0 1.08397e-06 -6.11581e-05 0 5.5005e-07 -6.11581e-05 0
          5.5005e-07 -2.48458e-05 0 0 -2.48458e-05 0 5.5005e-07 -2.42959e-05 0 0 -2.42959e-05 0
          0 -2.42975e-05 0 -4.29323e-07 -2.42975e-05 0 0 -2.38682e-05 0 -4.29323e-07 -2.38682e-05 0
          -4.29323e-07 -6.11601e-05 0 -6.66116e-07 -6.11601e-05 0 -4.29323e-07 -6.09234e-05 0 -6.66116e-07 -6.09234e-05 0
          -6.66116e-07 -8.55971e-05 0 -4.88738e-07 -8.55971e-05 0 -6.66116e-07 -8.57746e-05 0 -4.88738e-07 -8.57746e-05 0
          -4.88738e-07 -9.76929e-05 0 -6.9625e-10 -9.76929e-05 0 -4.88738e-07 -9.81812e-05 0 -6.9625e-10 -9.81812e-05 0
          -6.9625e-10 -9.76955e-05 0 4.86189e-07 -9.76955e-05 0 -6.9625e-10 -9.81826e-05 0 4.86189e-07 -9.81826e-05 0
          4.86189e-07 -8.5601e-05 0 6.60491e-07 -8.5601e-05 0 4.86189e-07 -8.57755e-05 0 6.60491e-07 -8.57755e-05 0
          6.60491e-07 -6.11581e-05 0 4.27181e-07 -6.11581e-05 0 6.60491e-07 -6.09249e-05 0 4.27181e-07 -6.09249e-05 0
          4.27181e-07 -2.42959e-05 0 0 -2.42959e-05 0 4.27181e-07 -2.38688e-05 0 0 -2.38688e-05 0
          0 -2.38682e-05 0 -4.30778e-07 -2.38682e-05 0 0 -2.34375e-05 0 -4.30778e-07 -2.34375e-05 0
          -4.30778e-07 -6.09234e-05 0 -4.16804e-07 -6.09234e-05 0 -4.30778e-07 -6.09375e-05 0 -4.16804e-07 -6.09375e-05 0
          -4.16804e-07 -8.57746e-05 0 -2.54043e-07 -8.57746e-05 0 -4.16804e-07 -8.59375e-05 0 -2.54043e-07 -8.59375e-05 0
          -2.54043e-07 -9.81812e-05 0 2.14717e-09 -9.81812e-05 0 -2.54043e-07 -9.84375e-05 0 2.14717e-09 -9.84375e-05 0
          2.14717e-09 -9.81826e-05 0 2.56938e-07 -9.81826e-05 0 2.14717e-09 -9.84375e-05 0 2.56938e-07 -9.84375e-05 0
          2.56938e-07 -8.57755e-05 0 4.1883e-07 -8.57755e-05 0 2.56938e-07 -8.59375e-05 0 4.1883e-07 -8.59375e-05 0
          4.1883e-07 -6.09249e-05 0 4.31318e-07 -6.09249e-05 0 4.1883e-07 -6.09375e-05 0 4.31318e-07 -6.09375e-05 0
          4.31318e-07 -2.38688e-05 0 0 -2.38688e-05 0 4.31318e-07 -2.34375e-05 0 0 -2.34375e-05 0
        </DataArray>
        <DataArray type="Float32" Name="pn" NumberOfComponents="1" format="ascii">
          100000 100000 100000 100000 100000 100000 100000 100000 100000 100000 100000 100000
          100000 100000 100000 100000 100000 100000 100000 100000 100000 100000 100000 100000
          100000 100000 100000 100000 100000 100000 100000 100000 100000 100000 100000 100000
          100000 100000 100000 100000 100000 100000 100000 100000 100000 100000 100000 100000
          100000 100000 100000 100000 100000 100000 100000 100000 100000 100000 100000 100000
          100000 100000 100000 100000 100000 100000 100000 100000 100000 100000 100000 100000
          100000 100000 100000 100000 100000 100000 100000 100000 100000 100000 100000 100000
          100000 100000 100000 100000 100000 100000 100000 100000 100000 100000 100000 100000
          100000 100000 100000 100000 100000 100000 100000 100000 100000 100000 100000 100000
          100000 100000 100000 100000 100000 100000 100000 100000 100000 100000 100000 100000
          100000 100000 100000 100000 100000 100000 100000 100000 100000 100000 100000 100000
          100000 100000 100000 100000 100000 100000 100000 100000 100000 100000 100000 100000
          100000 100000 100000 100000 100000 100000 100000 100000 100000 100000 100000 100000
          100000 100000 100000 100000 100000 100000 100000 100000 100000 100000 100000 100000
          100000 100000 100000 100000 100000 100000 100000 100000 100000 100000 100000 100000
          100000 100000 100000 100000 100000 100000 100000 100000 100000 100000 100000 100000
          100000 100000 100000 100000 100000 100000 100000 100000 100000 100000 100000 100000
          100000 100000 100000 100000 100000 100000 100000 100000 100000 100000 100000 100000
          100000 100000 100000 100000 100000 100000 100000 100000 100000 100000 100000 100000
          100000 100000 100000 100000 100000 100000 100000 100000 100000 100000 100000 100000
          100000 100000 100000 100000 100000 100000 100000 100000 100000 100000 100000 100000
          100000 100000 100000 100000
        </DataArray>
        <DataArray type="Float32" Name="X_gas^H2O" NumberOfComponents="1" format="ascii">
          0 0 0 0 0 0 0 0 0 0 0 0
          0 0 0 0 0 0 0 0 0 0 0 0
          0 0 0 0 0 0 0 0 0 0 0 0
          0 0 0 0 0 0 0 0 0 0 0 0
          0 0 0 0 0 0 0 0 0 0 0 0
          0 0 0 0 0 0 0 0 0 0 0 0
          0 0 0 0 0 0 0 0 0 0 0 0
          0 0 0 0 0 0 0 0 0 0 0 0
          0 0 0 0 0 0 0 0 0 0 0 0
          0 0 0 0 0 0 0 0 0 0 0 0
          0 0 0 0 0 0 0 0 0 0 0 0
          0 0 0 0 0 0 0 0 0 0 0 0
          0 0 0 0 0 0 0 0 0 0 0 0
          0 0 0 0 0 0 0 0 0 0 0 0
          0 0 0 0 0 0 0 0 0 0 0 0
          0 0 0 0 0 0 0 0 0 0 0 0
          0 0 0 0 0 0 0 0 0 0 0 0
          0 0 0 0 0 0 0 0 0 0 0 0
          0 0 0 0 0 0 0 0 0 0 0 0
          0 0 0 0 0 0 0 0 0 0 0 0
          0 0 0 0 0 0 0 0 0 0 0 0
          0 0 0 0
        </DataArray>
        <DataArray type="Float32" Name="temperature" NumberOfComponents="1" format="ascii">
          298.15 298.15 298.15 298.15 298.15 298.15 298.15 298.15 298.15 298.15 298.15 298.15
          298.15 298.15 298.15 298.15 298.15 298.15 298.15 298.15 298.15 298.15 298.15 298.15
          298.15 298.15 298.15 298.15 298.15 298.15 298.15 298.15 298.15 298.15 298.15 298.15
          298.15 298.15 298.15 298.15 298.15 298.15 298.15 298.15 298.15 298.15 298.15 298.15
          298.15 298.15 298.15 298.15 298.15 298.15 298.15 298.15 298.15 298.15 298.15 298.15
          298.15 298.15 298.15 298.15 298.15 298.15 298.15 298.15 298.15 298.15 298.15 298.15
          298.15 298.15 298.15 298.15 298.15 298.15 298.15 298.15 298.15 298.15 298.15 298.15
          298.15 298.15 298.15 298.15 298.15 298.15 298.15 298.15 298.15 298.15 298.15 298.15
          298.15 298.15 298.15 298.15 298.15 298.15 298.15 298.15 298.15 298.15 298.15 298.15
          298.15 298.15 298.15 298.15 298.15 298.15 298.15 298.15 298.15 298.15 298.15 298.15
          298.15 298.15 298.15 298.15 298.15 298.15 298.15 298.15 298.15 298.15 298.15 298.15
          298.15 298.15 298.15 298.15 298.15 298.15 298.15 298.15 298.15 298.15 298.15 298.15
          298.15 298.15 298.15 298.15 298.15 298.15 298.15 298.15 298.15 298.15 298.15 298.15
          298.15 298.15 298.15 298.15 298.15 298.15 298.15 298.15 298.15 298.15 298.15 298.15
          298.15 298.15 298.15 298.15 298.15 298.15 298.15 298.15 298.15 298.15 298.15 298.15
          298.15 298.15 298.15 298.15 298.15 298.15 298.15 298.15 298.15 298.15 298.15 298.15
          298.15 298.15 298.15 298.15 298.15 298.15 298.15 298.15 298.15 298.15 298.15 298.15
          298.15 298.15 298.15 298.15 298.15 298.15 298.15 298.15 298.15 298.15 298.15 298.15
          298.15 298.15 298.15 298.15 298.15 298.15 298.15 298.15 298.15 298.15 298.15 298.15
          298.15 298.15 298.15 298.15 298.15 298.15 298.15 298.15 298.15 298.15 298.15 298.15
          298.15 298.15 298.15 298.15 298.15 298.15 298.15 298.15 298.15 298.15 298.15 298.15
          298.15 298.15 298.15 298.15
        </DataArray>
      </CellData>
      <Points>
        <DataArray type="Float32" Name="Coordinates" NumberOfComponents="3" format="ascii">
          0 0.1 0 0.00625 0.1 0 0.0125 0.1 0 0 0.10625 0
          0.00625 0.10625 0 0.0125 0.10625 0 0 0.1125 0 0.00625 0.1125 0
          0.0125 0.1125 0 0.0125 0.1 0 0.01875 0.1 0 0.025 0.1 0
          0.0125 0.10625 0 0.01875 0.10625 0 0.025 0.10625 0 0.0125 0.1125 0
          0.01875 0.1125 0 0.025 0.1125 0 0.025 0.1 0 0.03125 0.1 0
          0.0375 0.1 0 0.025 0.10625 0 0.03125 0.10625 0 0.0375 0.10625 0
          0.025 0.1125 0 0.03125 0.1125 0 0.0375 0.1125 0 0.0375 0.1 0
          0.04375 0.1 0 0.05 0.1 0 0.0375 0.10625 0 0.04375 0.10625 0
          0.05 0.10625 0 0.0375 0.1125 0 0.04375 0.1125 0 0.05 0.1125 0
          0.05 0.1 0 0.05625 0.1 0 0.0625 0.1 0 0.05 0.10625 0
          0.05625 0.10625 0 0.0625 0.10625 0 0.05 0.1125 0 0.05625 0.1125 0
          0.0625 0.1125 0 0.0625 0.1 0 0.06875 0.1 0 0.075 0.1 0
          0.0625 0.10625 0 0.06875 0.10625 0 0.075 0.10625 0 0.0625 0.1125 0
          0.06875 0.1125 0 0.075 0.1125 0 0.075 0.1 0 0.08125 0.1 0
          0.0875 0.1 0 0.075 0.10625 0 0.08125 0.10625 0 0.0875 0.10625 0
          0.075 0.1125 0 0.08125 0.1125 0 0.0875 0.1125 0 0.0875 0.1 0
          0.09375 0.1 0 0.1 0.1 0 0.0875 0.10625 0 0.09375 0.10625 0
          0.1 0.10625 0 0.0875 0.1125 0 0.09375 0.1125 0 0.1 0.1125 0
          0 0.1125 0 0.00625 0.1125 0 0.0125 0.1125 0 0 0.11875 0
          0.00625 0.11875 0 0.0125 0.11875 0 0 0.125 0 0.00625 0.125 0
          0.0125 0.125 0 0.0125 0.1125 0 0.01875 0.1125 0 0.025 0.1125 0
          0.0125 0.11875 0 0.01875 0.11875 0 0.025 0.11875 0 0.0125 0.125 0
          0.01875 0.125 0 0.025 0.125 0 0.025 0.1125 0 0.03125 0.1125 0
          0.0375 0.1125 0 0.025 0.11875 0 0.03125 0.11875 0 0.0375 0.11875 0
          0.025 0.125 0 0.03125 0.125 0 0.0375 0.125 0 0.0375 0.1125 0
          0.04375 0.1125 0 0.05 0.1125 0 0.0375 0.11875 0 0.04375 0.11875 0
          0.05 0.11875 0 0.0375 0.125 0 0.04375 0.125 0 0.05 0.125 0
          0.05 0.1125 0 0.05625 0.1125 0 0.0625 0.1125 0 0.05 0.11875 0
          0.05625 0.11875 0 0.0625 0.11875 0 0.05 0.125 0 0.05625 0.125 0
          0.0625 0.125 0 0.0625 0.1125 0 0.06875 0.1125 0 0.075 0.1125 0
          0.0625 0.11875 0 0.06875 0.11875 0 0.075 0.11875 0 0.0625 0.125 0
          0.06875 0.125 0 0.075 0.125 0 0.075 0.1125 0 0.08125 0.1125 0
          0.0875 0.1125 0 0.075 0.11875 0 0.08125 0.11875 0 0.0875 0.11875 0
          0.075 0.125 0 0.08125 0.125 0 0.0875 0.125 0 0.0875 0.1125 0
          0.09375 0.1125 0 0.1 0.1125 0 0.0875 0.11875 0 0.09375 0.11875 0
          0.1 0.11875 0 0.0875 0.125 0 0.09375 0.125 0 0.1 0.125 0
          0 0.125 0 0.00625 0.125 0 0.0125 0.125 0 0 0.13125 0
          0.00625 0.13125 0 0.0125 0.13125 0 0 0.1375 0 0.00625 0.1375 0
          0.0125 0.1375 0 0.0125 0.125 0 0.01875 0.125 0 0.025 0.125 0
          0.0125 0.13125 0 0.01875 0.13125 0 0.025 0.13125 0 0.0125 0.1375 0
          0.01875 0.1375 0 0.025 0.1375 0 0.025 0.125 0 0.03125 0.125 0
          0.0375 0.125 0 0.025 0.13125 0 0.03125 0.13125 0 0.0375 0.13125 0
          0.025 0.1375 0 0.03125 0.1375 0 0.0375 0.1375 0 0.0375 0.125 0
          0.04375 0.125 0 0.05 0.125 0 0.0375 0.13125 0 0.04375 0.13125 0
          0.05 0.13125 0 0.0375 0.1375 0 0.04375 0.1375 0 0.05 0.1375 0
          0.05 0.125 0 0.05625 0.125 0 0.0625 0.125 0 0.05 0.13125 0
          0.05625 0.13125 0 0.0625 0.13125 0 0.05 0.1375 0 0.05625 0.1375 0
          0.0625 0.1375 0 0.0625 0.125 0 0.06875 0.125 0 0.075 0.125 0
          0.0625 0.13125 0 0.06875 0.13125 0 0.075 0.13125 0 0.0625 0.1375 0
          0.06875 0.1375 0 0.075 0.1375 0 0.075 0.125 0 0.08125 0.125 0
          0.0875 0.125 0 0.075 0.13125 0 0.08125 0.13125 0 0.0875 0.13125 0
          0.075 0.1375 0 0.08125 0.1375 0 0.0875 0.1375 0 0.0875 0.125 0
          0.09375 0.125 0 0.1 0.125 0 0.0875 0.13125 0 0.09375 0.13125 0
          0.1 0.13125 0 0.0875 0.1375 0 0.09375 0.1375 0 0.1 0.1375 0
          0 0.1375 0 0.00625 0.1375 0 0.0125 0.1375 0 0 0.14375 0
          0.00625 0.14375 0 0.0125 0.14375 0 0 0.15 0 0.00625 0.15 0
          0.0125 0.15 0 0.0125 0.1375 0 0.01875 0.1375 0 0.025 0.1375 0
          0.0125 0.14375 0 0.01875 0.14375 0 0.025 0.14375 0 0.0125 0.15 0
          0.01875 0.15 0 0.025 0.15 0 0.025 0.1375 0 0.03125 0.1375 0
          0.0375 0.1375 0 0.025 0.14375 0 0.03125 0.14375 0 0.0375 0.14375 0
          0.025 0.15 0 0.03125 0.15 0 0.0375 0.15 0 0.0375 0.1375 0
          0.04375 0.1375 0 0.05 0.1375 0 0.0375 0.14375 0 0.04375 0.14375 0
          0.05 0.14375 0 0.0375 0.15 0 0.04375 0.15 0 0.05 0.15 0
          0.05 0.1375 0 0.05625 0.1375 0 0.0625 0.1375 0 0.05 0.14375 0
          0.05625 0.14375 0 0.0625 0.14375 0 0.05 0.15 0 0.05625 0.15 0
          0.0625 0.15 0 0.0625 0.1375 0 0.06875 0.1375 0 0.075 0.1375 0
          0.0625 0.14375 0 0.06875 0.14375 0 0.075 0.14375 0 0.0625 0.15 0
          0.06875 0.15 0 0.075 0.15 0 0.075 0.1375 0 0.08125 0.1375 0
          0.0875 0.1375 0 0.075 0.14375 0 0.08125 0.14375 0 0.0875 0.14375 0
          0.075 0.15 0 0.08125 0.15 0 0.0875 0.15 0 0.0875 0.1375 0
          0.09375 0.1375 0 0.1 0.1375 0 0.0875 0.14375 0 0.09375 0.14375 0
          0.1 0.14375 0 0.0875 0.15 0 0.09375 0.15 0 0.1 0.15 0
          0 0.15 0 0.00625 0.15 0 0.0125 0.15 0 0 0.15625 0
          0.00625 0.15625 0 0.0125 0.15625 0 0 0.1625 0 0.00625 0.1625 0
          0.0125 0.1625 0 0.0125 0.15 0 0.01875 0.15 0 0.025 0.15 0
          0.0125 0.15625 0 0.01875 0.15625 0 0.025 0.15625 0 0.0125 0.1625 0
          0.01875 0.1625 0 0.025 0.1625 0 0.025 0.15 0 0.03125 0.15 0
          0.0375 0.15 0 0.025 0.15625 0 0.03125 0.15625 0 0.0375 0.15625 0
          0.025 0.1625 0 0.03125 0.1625 0 0.0375 0.1625 0 0.0375 0.15 0
          0.04375 0.15 0 0.05 0.15 0 0.0375 0.15625 0 0.04375 0.15625 0
          0.05 0.15625 0 0.0375 0.1625 0 0.04375 0.1625 0 0.05 0.1625 0
          0.05 0.15 0 0.05625 0.15 0 0.0625 0.15 0 0.05 0.15625 0
          0.05625 0.15625 0 0.0625 0.15625 0 0.05 0.1625 0 0.05625 0.1625 0
          0.0625 0.1625 0 0.0625 0.15 0 0.06875 0.15 0 0.075 0.15 0
          0.0625 0.15625 0 0.06875 0.15625 0 0.075 0.15625 0 0.0625 0.1625 0
          0.06875 0.1625 0 0.075 0.1625 0 0.075 0.15 0 0.08125 0.15 0
          0.0875 0.15 0 0.075 0.15625 0 0.08125 0.15625 0 0.0875 0.15625 0
          0.075 0.1625 0 0.08125 0.1625 0 0.0875 0.1625 0 0.0875 0.15 0
          0.09375 0.15 0 0.1 0.15 0 0.0875 0.15625 0 0.09375 0.15625 0
          0.1 0.15625 0 0.0875 0.1625 0 0.09375 0.1625 0 0.1 0.1625 0
          0 0.1625 0 0.00625 0.1625 0 0.0125 0.1625 0 0 0.16875 0
          0.00625 0.16875 0 0.0125 0.16875 0 0 0.175 0 0.00625 0.175 0
          0.0125 0.175 0 0.0125 0.1625 0 0.01875 0.1625 0 0.025 0.1625 0
          0.0125 0.16875 0 0.01875 0.16875 0 0.025 0.16875 0 0.0125 0.175 0
          0.01875 0.175 0 0.025 0.175 0 0.025 0.1625 0 0.03125 0.1625 0
          0.0375 0.1625 0 0.025 0.16875 0 0.03125 0.16875 0 0.0375 0.16875 0
          0.025 0.175 0 0.03125 0.175 0 0.0375 0.175 0 0.0375 0.1625 0
          0.04375 0.1625 0 0.05 0.1625 0 0.0375 0.16875 0 0.04375 0.16875 0
          0.05 0.16875 0 0.0375 0.175 0 0.04375 0.175 0 0.05 0.175 0
          0.05 0.1625 0 0.05625 0.1625 0 0.0625 0.1625 0 0.05 0.16875 0
          0.05625 0.16875 0 0.0625 0.16875 0 0.05 0.175 0 0.05625 0.175 0
          0.0625 0.175 0 0.0625 0.1625 0 0.06875 0.1625 0 0.075 0.1625 0
          0.0625 0.16875 0 0.06875 0.16875 0 0.075 0.16875 0 0.0625 0.175 0
          0.06875 0.175 0 0.075 0.175 0 0.075 0.1625 0 0.08125 0.1625 0
          0.0875 0.1625 0 0.075 0.16875 0 0.08125 0.16875 0 0.0875 0.16875 0
          0.075 0.175 0 0.08125 0.175 0 0.0875 0.175 0 0.0875 0.1625 0
          0.09375 0.1625 0 0.1 0.1625 0 0.0875 0.16875 0 0.09375 0.16875 0
          0.1 0.16875 0 0.0875 0.175 0 0.09375 0.175 0 0.1 0.175 0
          0 0.175 0 0.00625 0.175 0 0.0125 0.175 0 0 0.18125 0
          0.00625 0.18125 0 0.0125 0.18125 0 0 0.1875 0 0.00625 0.1875 0
          0.0125 0.1875 0 0.0125 0.175 0 0.01875 0.175 0 0.025 0.175 0
          0.0125 0.18125 0 0.01875 0.18125 0 0.025 0.18125 0 0.0125 0.1875 0
          0.01875 0.1875 0 0.025 0.1875 0 0.025 0.175 0 0.03125 0.175 0
          0.0375 0.175 0 0.025 0.18125 0 0.03125 0.18125 0 0.0375 0.18125 0
          0.025 0.1875 0 0.03125 0.1875 0 0.0375 0.1875 0 0.0375 0.175 0
          0.04375 0.175 0 0.05 0.175 0 0.0375 0.18125 0 0.04375 0.18125 0
          0.05 0.18125 0 0.0375 0.1875 0 0.04375 0.1875 0 0.05 0.1875 0
          0.05 0.175 0 0.05625 0.175 0 0.0625 0.175 0 0.05 0.18125 0
          0.05625 0.18125 0 0.0625 0.18125 0 0.05 0.1875 0 0.05625 0.1875 0
          0.0625 0.1875 0 0.0625 0.175 0 0.06875 0.175 0 0.075 0.175 0
          0.0625 0.18125 0 0.06875 0.18125 0 0.075 0.18125 0 0.0625 0.1875 0
          0.06875 0.1875 0 0.075 0.1875 0 0.075 0.175 0 0.08125 0.175 0
          0.0875 0.175 0 0.075 0.18125 0 0.08125 0.18125 0 0.0875 0.18125 0
          0.075 0.1875 0 0.08125 0.1875 0 0.0875 0.1875 0 0.0875 0.175 0
          0.09375 0.175 0 0.1 0.175 0 0.0875 0.18125 0 0.09375 0.18125 0
          0.1 0.18125 0 0.0875 0.1875 0 0.09375 0.1875 0 0.1 0.1875 0
          0 0.1875 0 0.00625 0.1875 0 0.0125 0.1875 0 0 0.19375 0
          0.00625 0.19375 0 0.0125 0.19375 0 0 0.2 0 0.00625 0.2 0
          0.0125 0.2 0 0.0125 0.1875 0 0.01875 0.1875 0 0.025 0.1875 0
          0.0125 0.19375 0 0.01875 0.19375 0 0.025 0.19375 0 0.0125 0.2 0
          0.01875 0.2 0 0.025 0.2 0 0.025 0.1875 0 0.03125 0.1875 0
          0.0375 0.1875 0 0.025 0.19375 0 0.03125 0.19375 0 0.0375 0.19375 0
          0.025 0.2 0 0.03125 0.2 0 0.0375 0.2 0 0.0375 0.1875 0
          0.04375 0.1875 0 0.05 0.1875 0 0.0375 0.19375 0 0.04375 0.19375 0
          0.05 0.19375 0 0.0375 0.2 0 0.04375 0.2 0 0.05 0.2 0
          0.05 0.1875 0 0.05625 0.1875 0 0.0625 0.1875 0 0.05 0.19375 0
          0.05625 0.19375 0 0.0625 0.19375 0 0.05 0.2 0 0.05625 0.2 0
          0.0625 0.2 0 0.0625 0.1875 0 0.06875 0.1875 0 0.075 0.1875 0
          0.0625 0.19375 0 0.06875 0.19375 0 0.075 0.19375 0 0.0625 0.2 0
          0.06875 0.2 0 0.075 0.2 0 0.075 0.1875 0 0.08125 0.1875 0
          0.0875 0.1875 0 0.075 0.19375 0 0.08125 0.19375 0 0.0875 0.19375 0
          0.075 0.2 0 0.08125 0.2 0 0.0875 0.2 0 0.0875 0.1875 0
          0.09375 0.1875 0 0.1 0.1875 0 0.0875 0.19375 0 0.09375 0.19375 0
          0.1 0.19375 0 0.0875 0.2 0 0.09375 0.2 0 0.1 0.2 0
        </DataArray>
      </Points>
      <Cells>
        <DataArray type="Int32" Name="connectivity" NumberOfComponents="1" format="ascii">
          4 3 0 1 5 4 1 2 7 6 3 4
          8 7 4 5 13 12 9 10 14 13 10 11
          16 15 12 13 17 16 13 14 22 21 18 19
          23 22 19 20 25 24 21 22 26 25 22 23
          31 30 27 28 32 31 28 29 34 33 30 31
          35 34 31 32 40 39 36 37 41 40 37 38
          43 42 39 40 44 43 40 41 49 48 45 46
          50 49 46 47 52 51 48 49 53 52 49 50
          58 57 54 55 59 58 55 56 61 60 57 58
          62 61 58 59 67 66 63 64 68 67 64 65
          70 69 66 67 71 70 67 68 76 75 72 73
          77 76 73 74 79 78 75 76 80 79 76 77
          85 84 81 82 86 85 82 83 88 87 84 85
          89 88 85 86 94 93 90 91 95 94 91 92
          97 96 93 94 98 97 94 95 103 102 99 100
          104 103 100 101 106 105 102 103 107 106 103 104
          112 111 108 109 113 112 109 110 115 114 111 112
          116 115 112 113 121 120 117 118 122 121 118 119
          124 123 120 121 125 124 121 122 130 129 126 127
          131 130 127 128 133 132 129 130 134 133 130 131
          139 138 135 136 140 139 136 137 142 141 138 139
          143 142 139 140 148 147 144 145 149 148 145 146
          151 150 147 148 152 151 148 149 157 156 153 154
          158 157 154 155 160 159 156 157 161 160 157 158
          166 165 162 163 167 166 163 164 169 168 165 166
          170 169 166 167 175 174 171 172 176 175 172 173
          178 177 174 175 179 178 175 176 184 183 180 181
          185 184 181 182 187 186 183 184 188 187 184 185
          193 192 189 190 194 193 190 191 196 195 192 193
          197 196 193 194 202 201 198 199 203 202 199 200
          205 204 201 202 206 205 202 203 211 210 207 208
          212 211 208 209 214 213 210 211 215 214 211 212
          220 219 216 217 221 220 217 218 223 222 219 220
          224 223 220 221 229 228 225 226 230 229 226 227
          232 231 228 229 233 232 229 230 238 237 234 235
          239 238 235 236 241 240 237 238 242 241 238 239
          247 246 243 244 248 247 244 245 250 249 246 247
          251 250 247 248 256 255 252 253 257 256 253 254
          259 258 255 256 260 259 256 257 265 264 261 262
          266 265 262 263 268 267 264 265 269 268 265 266
          274 273 270 271 275 274 271 272 277 276 273 274
          278 277 274 275 283 282 279 280 284 283 280 281
          286 285 282 283 287 286 283 284 292 291 288 289
          293 292 289 290 295 294 291 292 296 295 292 293
          301 300 297 298 302 301 298 299 304 303 300 301
          305 304 301 302 310 309 306 307 311 310 307 308
          313 312 309 310 314 313 310 311 319 318 315 316
          320 319 316 317 322 321 318 319 323 322 319 320
          328 327 324 325 329 328 325 326 331 330 327 328
          332 331 328 329 337 336 333 334 338 337 334 335
          340 339 336 337 341 340 337 338 346 345 342 343
          347 346 343 344 349 348 345 346 350 349 346 347
          355 354 351 352 356 355 352 353 358 357 354 355
          359 358 355 356 364 363 360 361 365 364 361 362
          367 366 363 364 368 367 364 365 373 372 369 370
          374 373 370 371 376 375 372 373 377 376 373 374
          382 381 378 379 383 382 379 380 385 384 381 382
          386 385 382 383 391 390 387 388 392 391 388 389
          394 393 390 391 395 394 391 392 400 399 396 397
          401 400 397 398 403 402 399 400 404 403 400 401
          409 408 405 406 410 409 406 407 412 411 408 409
          413 412 409 410 418 417 414 415 419 418 415 416
          421 420 417 418 422 421 418 419 427 426 423 424
          428 427 424 425 430 429 426 427 431 430 427 428
          436 435 432 433 437 436 433 434 439 438 435 436
          440 439 436 437 445 444 441 442 446 445 442 443
          448 447 444 445 449 448 445 446 454 453 450 451
          455 454 451 452 457 456 453 454 458 457 454 455
          463 462 459 460 464 463 460 461 466 465 462 463
          467 466 463 464 472 471 468 469 473 472 469 470
          475 474 471 472 476 475 472 473 481 480 477 478
          482 481 478 479 484 483 480 481 485 484 481 482
          490 489 486 487 491 490 487 488 493 492 489 490
          494 493 490 491 499 498 495 496 500 499 496 497
          502 501 498 499 503 502 499 500 508 507 504 505
          509 508 505 506 511 510 507 508 512 511 508 509
          517 516 513 514 518 517 514 515 520 519 516 517
          521 520 517 518 526 525 522 523 527 526 523 524
          529 528 525 526 530 529 526 527 535 534 531 532
          536 535 532 533 538 537 534 535 539 538 535 536
          544 543 540 541 545 544 541 542 547 546 543 544
          548 547 544 545 553 552 549 550 554 553 550 551
          556 555 552 553 557 556 553 554 562 561 558 559
          563 562 559 560 565 564 561 562 566 565 562 563
          571 570 567 568 572 571 568 569 574 573 570 571
          575 574 571 572
        </DataArray>
        <DataArray type="Int32" Name="offsets" NumberOfComponents="1" format="ascii">
          4 8 12 16 20 24 28 32 36 40 44 48
          52 56 60 64 68 72 76 80 84 88 92 96
          100 104 108 112 116 120 124 128 132 136 140 144
          148 152 156 160 164 168 172 176 180 184 188 192
          196 200 204 208 212 216 220 224 228 232 236 240
          244 248 252 256 260 264 268 272 276 280 284 288
          292 296 300 304 308 312 316 320 324 328 332 336
          340 344 348 352 356 360 364 368 372 376 380 384
          388 392 396 400 404 408 412 416 420 424 428 432
          436 440 444 448 452 456 460 464 468 472 476 480
          484 488 492 496 500 504 508 512 516 520 524 528
          532 536 540 544 548 552 556 560 564 568 572 576
          580 584 588 592 596 600 604 608 612 616 620 624
          628 632 636 640 644 648 652 656 660 664 668 672
          676 680 684 688 692 696 700 704 708 712 716 720
          724 728 732 736 740 744 748 752 756 760 764 768
          772 776 780 784 788 792 796 800 804 808 812 816
          820 824 828 832 836 840 844 848 852 856 860 864
          868 872 876 880 884 888 892 896 900 904 908 912
          916 920 924 928 932 936 940 944 948 952 956 960
          964 968 972 976 980 984 988 992 996 1000 1004 1008
          1012 1016 1020 1024
        </DataArray>
        <DataArray type="UInt8" Name="types" NumberOfComponents="1" format="ascii">
          9 9 9 9 9 9 9 9 9 9 9 9
          9 9 9 9 9 9 9 9 9 9 9 9
          9 9 9 9 9 9 9 9 9 9 9 9
          9 9 9 9 9 9 9 9 9 9 9 9
          9 9 9 9 9 9 9 9 9 9 9 9
          9 9 9 9 9 9 9 9 9 9 9 9
          9 9 9 9 9 9 9 9 9 9 9 9
          9 9 9 9 9 9 9 9 9 9 9 9
          9 9 9 9 9 9 9 9 9 9 9 9
          9 9 9 9 9 9 9 9 9 9 9 9
          9 9 9 9 9 9 9 9 9 9 9 9
          9 9 9 9 9 9 9 9 9 9 9 9
          9 9 9 9 9 9 9 9 9 9 9 9
          9 9 9 9 9 9 9 9 9 9 9 9
          9 9 9 9 9 9 9 9 9 9 9 9
          9 9 9 9 9 9 9 9 9 9 9 9
          9 9 9 9 9 9 9 9 9 9 9 9
          9 9 9 9 9 9 9 9 9 9 9 9
          9 9 9 9 9 9 9 9 9 9 9 9
          9 9 9 9 9 9 9 9 9 9 9 9
          9 9 9 9 9 9 9 9 9 9 9 9
          9 9 9 9
        </DataArray>
      </Cells>
    </Piece>
  </UnstructuredGrid>
</VTKFile>
